﻿ALC1001;ALCOHOL CEREAL X 1 LT SAN;Este alcohol se elabora vía fermentación de grano de maíz. Teniendo como característica distintiva la falta de aroma, además de su máxima calidad. Estas cualidades lo hacen ideal para su uso en la industria de alimentos, bebidas, cosméticos, entre otras, para diversos usos.;Alcofrac;http://www.drogueriapaso.com.ar/web/wp-content/uploads/2018/01/ALC1001---ALCOHOL-CEREAL-X-1-LT-SANICOL.jpg
ALC1002;ALCOHOL GEL X 250 ML C/ BOMBA SAN;Gel a base de alcohol al 70 %, con glicerina. Este tipo de alcohol es ideal para desinfectarse las manos y es efectivo para la prevención de contagio de enfermedades. Medidas de Precaución: El Alcohol en gel es sólo para higiene personal, no es apto para consumo humano. Presentación: 250 ml. x 1 unidad, con bomba.;Alcofrac;http://www.drogueriapaso.com.ar/web/wp-content/uploads/2018/01/ALC1002---ALCOHOL-GEL-X-250-ML-CON-BOMBA-SANICOL.jpg
ALC1003;ALCOHOL GEL X 65 ML C/ PICO VERT SAN;Gel a base de alcohol al 70 %, con glicerina. Este tipo de alcohol disminuye el riesgo de contraer enfermedades.E s ideal para desinfectarse las manos y es efectivo para la prevención de contagio de enfermedades. Medidas de Precaución: El Alcohol en gel es sólo para higiene personal, no es apto para consumo humano. Presentación: 65 ml. x 1 unidad, con pico vertedor.;Alcofrac;http://www.drogueriapaso.com.ar/web/wp-content/uploads/2018/01/ALC1003---ALCOHOL-GEL-X-65-ML-CON-PICO-VERTEDOR-SANICOL.jpg
ALC1004;ALCOHOL X 1 LT SAN;Alcohol 96 % de melaza, de uso hospitalario antiséptico, desinfectante, bactericida, germicida de uso externo. Elaboración de medicamentos, fórmulas magistrales y homeopaticas. Presentación: 1 litro x 1 unidad. ;Alcofrac;http://www.drogueriapaso.com.ar/web/wp-content/uploads/2018/01/ALC1004---ALCOHOL-X-1-LT-SANICOL.jpg
ALC1005;ALCOHOL X 250 ML X 20 UNID SAN;Alcohol 96 % de melaza, de uso hospitalario antiséptico, desinfectante, bactericida, germicida de uso externo. Elaboración de medicamentos, fórmulas magistrales y homeopaticas. Presentación: 250 ml. X 20 unidades.  ;Alcofrac;http://www.drogueriapaso.com.ar/web/wp-content/uploads/2018/01/ALC1005---ALCOHOL-X-250-ML-X-20-UNIDADES-SANICOL.jpg
ALC1006;ALCOHOL X 500 ML X 20 UNID SAN;Alcohol 96 % de melaza, de uso hospitalario antiséptico, desinfectante, bactericida, germicida de uso externo. Elaboración de medicamentos, fórmulas magistrales y homeopaticas. Presentación: 500 ml. X 20 unidades.;Alcofrac;http://www.drogueriapaso.com.ar/web/wp-content/uploads/2018/01/ALC1006---ALCOHOL-X-500-ML-X-20-UNIDADES-SANICOL.jpg
ALC1007;ALCOHOL GEL X 1 LT C/ BOMBA SAN;Gel a base de alcohol al 70 % con glicerina. Este tipo de alcohol es ideal para desinfectarse las manos y es efectivo para la prevención de contagio de enfermedades. Medidas de Precaución: El Alcohol en gel es sólo para higiene personal, no es para consumo humano. Presentación: 1 litro x 1 unidad, con bomba.;Alcofrac;http://www.drogueriapaso.com.ar/web/wp-content/uploads/2018/01/ALC1007---ALCOHOL-GEL-X-1-LT-CON-BOMBA-SANICOL.jpg
ALC1010;ALCOHOL GEL X 5LT SAN;Alcohol gel a base de alcohol al 70 %, glicerina y gelificante. Este tipo de alcohol es ideal para desinfectarse las manos y es efectivo para la prevención de contagio de enfermedades. Medidas de Precaución: El Alcohol en gel es sólo para higiene personal, no es para consumo humano. Presentación: 5 litros, x 1 unidad.;Alcofrac;http://www.drogueriapaso.com.ar/web/wp-content/uploads/2018/01/ALC1010---ALCOHOL-GEL-X-5-LT-SANICOL.jpg
ALC1012;ALCOHOL X 1 LT AL 70% X UNID. SAN;Alcohol 70 % incoloro. Alcohol de melaza desnaturalizado a 70 es de uso extendido en ambientes hospitalarios. Dicha concentracion alcoholica es la mas eficaz contra hongos, bacterias y virus. Es un buen antiséptico para la piel sana previa a inyecciones, y la preparacion previa de areas prequirurgicas. Sirve también para la limpieza y desinfeccion de intrumentos. Usos: Farmacéutico, Hospitalario, Cuidado Personal. Presentación: 1 litro x 1 unidad.;Alcofrac;http://www.drogueriapaso.com.ar/web/wp-content/uploads/2018/01/ALC1012---ALCOHOL-X-1-LT-AL-70-SANICOL.jpg
ALC1018;ALCOHOL GEL X 500 ML C/ BOMBA SAN;Alcohol gel a base de alcohol al 70 %, glicerina y gelificante. Este tipo de alcohol es ideal para desinfectarse las manos y es efectivo para la prevención de contagio de enfermedades. Medidas de Precaución: El Alcohol en gel es sólo para higiene personal, no es para consumo humano. Presentación: 500 ml. con bomba.;Alcofrac;http://www.drogueriapaso.com.ar/web/wp-content/uploads/2018/01/ALC1018---ALCOHOL-GEL-X-500-ML-CON-BOMBA-SANICOL.jpg
